[gd_resource type="Animation" format=2]

[resource]
tracks/0/type = "transform"
tracks/0/path = NodePath("Skeleton:Middle_Metacarpal")
tracks/0/interp = 1
tracks/0/loop_wrap = true
tracks/0/imported = false
tracks/0/enabled = true
tracks/0/keys = PoolRealArray( 0, 1, 0, 0, 0, -0.0980171, 7.30285e-10, 7.4147e-09, 0.995185, 1, 1, 1, 1, 1, 0, 0, 0, -0.0980171, 7.30285e-10, 7.4147e-09, 0.995185, 1, 1, 1 )
tracks/1/type = "transform"
tracks/1/path = NodePath("Skeleton:Middle_Proximal")
tracks/1/interp = 1
tracks/1/loop_wrap = true
tracks/1/imported = false
tracks/1/enabled = true
tracks/1/keys = PoolRealArray( 0, 1, 0, 0, 0, -0.19509, 0, 0, 0.980785, 1, 0.999999, 0.999999, 1, 1, 0, 0, 0, -0.471397, 0, 0, 0.881921, 1, 0.999999, 0.999999 )
tracks/2/type = "transform"
tracks/2/path = NodePath("Skeleton:Middle_Intermediate")
tracks/2/interp = 1
tracks/2/loop_wrap = true
tracks/2/imported = false
tracks/2/enabled = true
tracks/2/keys = PoolRealArray( 0, 1, 0, 0, 0, -0.19509, 0, 0, 0.980785, 1, 1, 1, 1, 1, 0, 0, 0, -0.290285, 0, 0, 0.95694, 1, 1, 1 )
tracks/3/type = "transform"
tracks/3/path = NodePath("Skeleton:Middle_Distal")
tracks/3/interp = 1
tracks/3/loop_wrap = true
tracks/3/imported = false
tracks/3/enabled = true
tracks/3/keys = PoolRealArray( 0, 1, 0, 0, 0, 0.0980171, 0, 0, 0.995185, 1, 1, 1, 1, 1, 0, 0, 0, 0, 0, 0, 1, 1, 1, 1 )
tracks/4/type = "transform"
tracks/4/path = NodePath("Skeleton:Middle_Tip")
tracks/4/interp = 1
tracks/4/loop_wrap = true
tracks/4/imported = false
tracks/4/enabled = true
tracks/4/keys = PoolRealArray( 0, 1, 0, 0, 0, 0, 0, 0, 1, 1, 1, 1, 1, 1, 0, 0, 0, 0, 0, 0, 1, 1, 1, 1 )
